module blitzkrieg-voucher-app

go 1.18

require (
	github.com/golang-jwt/jwt v3.2.2+incompatible
	github.com/golang-jwt/jwt/v5 v5.0.0
	github.com/lib/pq v1.10.9
	github.com/tkanos/gonfig v0.0.0-20210106201359-53e13348de2f
)

require (
	github.com/asaskevich/govalidator v0.0.0-20230301143203-a9d515a09cc2 // indirect
	github.com/gabriel-vasile/mimetype v1.4.2 // indirect
	github.com/go-playground/locales v0.14.1 // indirect
	github.com/go-playground/universal-translator v0.18.1 // indirect
	github.com/leodido/go-urn v1.2.4 // indirect
	golang.org/x/time v0.3.0 // indirect
)

require (
	github.com/ghodss/yaml v1.0.0 // indirect
	github.com/go-ozzo/ozzo-validation v3.6.0+incompatible
	github.com/go-playground/validator/v10 v10.15.3
	github.com/labstack/echo/v4 v4.11.1
	github.com/labstack/gommon v0.4.0 // indirect
	github.com/mattn/go-colorable v0.1.13 // indirect
	github.com/mattn/go-isatty v0.0.19 // indirect
	github.com/mitchellh/mapstructure v1.5.0
	github.com/valyala/bytebufferpool v1.0.0 // indirect
	github.com/valyala/fasttemplate v1.2.2 // indirect
	golang.org/x/crypto v0.11.0
	golang.org/x/net v0.12.0 // indirect
	golang.org/x/sys v0.10.0 // indirect
	golang.org/x/text v0.11.0 // indirect
	gopkg.in/yaml.v2 v2.4.0 // indirect
)
